^D:\__1__WORK\__4__PROJECTDEVSOURCE\__10__PILOT\__1__CPPUNIT\CPPUNIT-1.12.1\SRC\DLLPLUGINTESTER\COMMANDLINEPARSER.CPP|D:\__1__WORK\__4__PROJECTDEVSOURCE\__10__PILOT\__1__CPPUNIT\CPPUNIT-1.12.1\SRC\DLLPLUGINTESTER\COMMANDLINEPARSERTEST.CPP|D:\__1__WORK\__4__PROJECTDEVSOURCE\__10__PILOT\__1__CPPUNIT\CPPUNIT-1.12.1\SRC\DLLPLUGINTESTER\DLLPLUGINTESTERTEST.CPP
D:\__1__WORK\__4__PROJECTDEVSOURCE\__10__PILOT\__1__CPPUNIT\CPPUNIT-1.12.1\SRC\DLLPLUGINTESTER\RELEASETEST\DLLPLUGINTESTERTEST.OBJ
D:\__1__WORK\__4__PROJECTDEVSOURCE\__10__PILOT\__1__CPPUNIT\CPPUNIT-1.12.1\SRC\DLLPLUGINTESTER\RELEASETEST\COMMANDLINEPARSERTEST.OBJ
D:\__1__WORK\__4__PROJECTDEVSOURCE\__10__PILOT\__1__CPPUNIT\CPPUNIT-1.12.1\SRC\DLLPLUGINTESTER\RELEASETEST\COMMANDLINEPARSER.OBJ
