^D:\__1__WORK\__4__PROJECTDEVSOURCE\__10__PILOT\__1__CPPUNIT\CPPUNIT-1.12.1\SRC\DLLPLUGINTESTER\RELEASETEST\COMMANDLINEPARSER.OBJ|D:\__1__WORK\__4__PROJECTDEVSOURCE\__10__PILOT\__1__CPPUNIT\CPPUNIT-1.12.1\SRC\DLLPLUGINTESTER\RELEASETEST\COMMANDLINEPARSERTEST.OBJ|D:\__1__WORK\__4__PROJECTDEVSOURCE\__10__PILOT\__1__CPPUNIT\CPPUNIT-1.12.1\SRC\DLLPLUGINTESTER\RELEASETEST\DLLPLUGINTESTERTEST.OBJ
D:\__1__WORK\__4__PROJECTDEVSOURCE\__10__PILOT\__1__CPPUNIT\CPPUNIT-1.12.1\SRC\DLLPLUGINTESTER\RELEASETEST\DLLPLUGINTESTERTEST.EXE
D:\__1__WORK\__4__PROJECTDEVSOURCE\__10__PILOT\__1__CPPUNIT\CPPUNIT-1.12.1\SRC\DLLPLUGINTESTER\RELEASETEST\DLLPLUGINTESTERTEST.EXE.INTERMEDIATE.MANIFEST
