^D:\__1__WORK\__4__PROJECTDEVSOURCE\__10__PILOT\__1__CPPUNIT\CPPUNIT-1.12.1\EXAMPLES\SIMPLE\EXAMPLETESTCASE.CPP|D:\__1__WORK\__4__PROJECTDEVSOURCE\__10__PILOT\__1__CPPUNIT\CPPUNIT-1.12.1\EXAMPLES\SIMPLE\SIMPLEPLUGIN.CPP
D:\__1__WORK\__4__PROJECTDEVSOURCE\__10__PILOT\__1__CPPUNIT\CPPUNIT-1.12.1\EXAMPLES\SIMPLE\DEBUGPLUGIN\EXAMPLETESTCASE.OBJ
D:\__1__WORK\__4__PROJECTDEVSOURCE\__10__PILOT\__1__CPPUNIT\CPPUNIT-1.12.1\EXAMPLES\SIMPLE\DEBUGPLUGIN\SIMPLEPLUGIN.OBJ
^D:\__1__WORK\__4__PROJECTDEVSOURCE\__10__PILOT\__1__CPPUNIT\CPPUNIT-1.12.1\EXAMPLES\SIMPLE\EXAMPLETESTCASE.CPP
D:\__1__WORK\__4__PROJECTDEVSOURCE\__10__PILOT\__1__CPPUNIT\CPPUNIT-1.12.1\EXAMPLES\SIMPLE\DEBUGPLUGIN\VC100.PDB
^D:\__1__WORK\__4__PROJECTDEVSOURCE\__10__PILOT\__1__CPPUNIT\CPPUNIT-1.12.1\EXAMPLES\SIMPLE\SIMPLEPLUGIN.CPP
D:\__1__WORK\__4__PROJECTDEVSOURCE\__10__PILOT\__1__CPPUNIT\CPPUNIT-1.12.1\EXAMPLES\SIMPLE\DEBUGPLUGIN\VC100.PDB
