^D:\__1__WORK\__4__PROJECTDEVSOURCE\__10__PILOT\__1__CPPUNIT\CPPUNIT-1.12.1\EXAMPLES\SIMPLE\DEBUGPLUGIN\EXAMPLETESTCASE.OBJ|D:\__1__WORK\__4__PROJECTDEVSOURCE\__10__PILOT\__1__CPPUNIT\CPPUNIT-1.12.1\EXAMPLES\SIMPLE\DEBUGPLUGIN\SIMPLEPLUGIN.OBJ
D:\__1__WORK\__4__PROJECTDEVSOURCE\__10__PILOT\__1__CPPUNIT\CPPUNIT-1.12.1\EXAMPLES\SIMPLE\DEBUGPLUGIN\SIMPLE_PLUGIND.DLL
D:\__1__WORK\__4__PROJECTDEVSOURCE\__10__PILOT\__1__CPPUNIT\CPPUNIT-1.12.1\EXAMPLES\SIMPLE\DEBUGPLUGIN\SIMPLE_PLUGIND.DLL.INTERMEDIATE.MANIFEST
D:\__1__WORK\__4__PROJECTDEVSOURCE\__10__PILOT\__1__CPPUNIT\CPPUNIT-1.12.1\EXAMPLES\SIMPLE\DEBUGPLUGIN\SIMPLE_PLUGIND.PDB
