^D:\__1__WORK\__4__PROJECTDEVSOURCE\__10__PILOT\__1__CPPUNIT\TESTSOMECLASSESINHEADERS\TESTSOMECLASSESINHEADERS\TESTSOMECLASSESINHEADERS\DEBUG\NEWCLASSTESTING.OBJ|D:\__1__WORK\__4__PROJECTDEVSOURCE\__10__PILOT\__1__CPPUNIT\TESTSOMECLASSESINHEADERS\TESTSOMECLASSESINHEADERS\TESTSOMECLASSESINHEADERS\DEBUG\STDAFX.OBJ|D:\__1__WORK\__4__PROJECTDEVSOURCE\__10__PILOT\__1__CPPUNIT\TESTSOMECLASSESINHEADERS\TESTSOMECLASSESINHEADERS\TESTSOMECLASSESINHEADERS\DEBUG\TESTSOMECLASSESINHEADERS.EXE.EMBED.MANIFEST.RES|D:\__1__WORK\__4__PROJECTDEVSOURCE\__10__PILOT\__1__CPPUNIT\TESTSOMECLASSESINHEADERS\TESTSOMECLASSESINHEADERS\TESTSOMECLASSESINHEADERS\DEBUG\TESTSOMECLASSESINHEADERS.OBJ
C:\WINDOWS\GLOBALIZATION\SORTING\SORTDEFAULT.NLS
D:\__1__WORK\__4__PROJECTDEVSOURCE\__10__PILOT\__1__CPPUNIT\CPPUNIT-1.12.1\LIB\CPPUNITD.LIB
C:\PROGRAM FILES (X86)\MICROSOFT SDKS\WINDOWS\V7.0A\LIB\KERNEL32.LIB
C:\PROGRAM FILES (X86)\MICROSOFT SDKS\WINDOWS\V7.0A\LIB\USER32.LIB
C:\PROGRAM FILES (X86)\MICROSOFT SDKS\WINDOWS\V7.0A\LIB\GDI32.LIB
C:\PROGRAM FILES (X86)\MICROSOFT SDKS\WINDOWS\V7.0A\LIB\WINSPOOL.LIB
C:\PROGRAM FILES (X86)\MICROSOFT SDKS\WINDOWS\V7.0A\LIB\COMDLG32.LIB
C:\PROGRAM FILES (X86)\MICROSOFT SDKS\WINDOWS\V7.0A\LIB\ADVAPI32.LIB
C:\PROGRAM FILES (X86)\MICROSOFT SDKS\WINDOWS\V7.0A\LIB\SHELL32.LIB
C:\PROGRAM FILES (X86)\MICROSOFT SDKS\WINDOWS\V7.0A\LIB\OLE32.LIB
C:\PROGRAM FILES (X86)\MICROSOFT SDKS\WINDOWS\V7.0A\LIB\OLEAUT32.LIB
C:\PROGRAM FILES (X86)\MICROSOFT SDKS\WINDOWS\V7.0A\LIB\UUID.LIB
C:\PROGRAM FILES (X86)\MICROSOFT SDKS\WINDOWS\V7.0A\LIB\ODBC32.LIB
C:\PROGRAM FILES (X86)\MICROSOFT SDKS\WINDOWS\V7.0A\LIB\ODBCCP32.LIB
D:\__1__WORK\__4__PROJECTDEVSOURCE\__10__PILOT\__1__CPPUNIT\TESTSOMECLASSESINHEADERS\TESTSOMECLASSESINHEADERS\TESTSOMECLASSESINHEADERS\DEBUG\TESTSOMECLASSESINHEADERS.EXE.EMBED.MANIFEST.RES
D:\__1__WORK\__4__PROJECTDEVSOURCE\__10__PILOT\__1__CPPUNIT\TESTSOMECLASSESINHEADERS\TESTSOMECLASSESINHEADERS\TESTSOMECLASSESINHEADERS\DEBUG\NEWCLASSTESTING.OBJ
D:\__1__WORK\__4__PROJECTDEVSOURCE\__10__PILOT\__1__CPPUNIT\TESTSOMECLASSESINHEADERS\TESTSOMECLASSESINHEADERS\TESTSOMECLASSESINHEADERS\DEBUG\STDAFX.OBJ
D:\__1__WORK\__4__PROJECTDEVSOURCE\__10__PILOT\__1__CPPUNIT\TESTSOMECLASSESINHEADERS\TESTSOMECLASSESINHEADERS\TESTSOMECLASSESINHEADERS\DEBUG\TESTSOMECLASSESINHEADERS.OBJ
C:\WINDOWS\SYSTEM32\TZRES.DLL
D:\__1__WORK\__4__PROJECTDEVSOURCE\__10__PILOT\__1__CPPUNIT\TESTSOMECLASSESINHEADERS\TESTSOMECLASSESINHEADERS\DEBUG\TESTSOMECLASSESINHEADERS.ILK
D:\__1__WORK\__4__PROJECTDEVSOURCE\__10__PILOT\__1__CPPUNIT\TESTSOMECLASSESINHEADERS\TESTSOMECLASSESINHEADERS\DEBUG\TESTSOMECLASSESINHEADERS.EXE
D:\__1__WORK\__4__PROJECTDEVSOURCE\__10__PILOT\__1__CPPUNIT\TESTSOMECLASSESINHEADERS\TESTSOMECLASSESINHEADERS\DEBUG\TESTSOMECLASSESINHEADERS.PDB
C:\PROGRAM FILES (X86)\MICROSOFT VISUAL STUDIO 10.0\VC\LIB\MSVCPRTD.LIB
C:\PROGRAM FILES (X86)\MICROSOFT VISUAL STUDIO 10.0\VC\LIB\MSVCRTD.LIB
C:\PROGRAM FILES (X86)\MICROSOFT VISUAL STUDIO 10.0\VC\LIB\OLDNAMES.LIB
