^D:\__1__WORK\__4__ProjectDevSource\__10__Pilot\__1__CPPUnit\cppunit-1.12.1\examples\ClockerPlugIn\ClockerPlugIn.vcxproj
D:\__1__WORK\__4__ProjectDevSource\__10__Pilot\__1__CPPUnit\cppunit-1.12.1\examples\ClockerPlugIn\DebugNtTimer\ClockerPlugInNtd.lib
D:\__1__WORK\__4__ProjectDevSource\__10__Pilot\__1__CPPUnit\cppunit-1.12.1\examples\ClockerPlugIn\DebugNtTimer\ClockerPlugInNtd.exp
