^D:\__1__WORK\__4__PROJECTDEVSOURCE\__10__PILOT\__1__CPPUNIT\CPPUNIT-1.12.1\EXAMPLES\MONEY\STDAFX.CPP
D:\__1__WORK\__4__PROJECTDEVSOURCE\__10__PILOT\__1__CPPUNIT\CPPUNIT-1.12.1\EXAMPLES\MONEY\RELEASE\MONEY.PCH
D:\__1__WORK\__4__PROJECTDEVSOURCE\__10__PILOT\__1__CPPUNIT\CPPUNIT-1.12.1\EXAMPLES\MONEY\RELEASE\STDAFX.OBJ
^D:\__1__WORK\__4__PROJECTDEVSOURCE\__10__PILOT\__1__CPPUNIT\CPPUNIT-1.12.1\EXAMPLES\MONEY\MONEYAPP.CPP|D:\__1__WORK\__4__PROJECTDEVSOURCE\__10__PILOT\__1__CPPUNIT\CPPUNIT-1.12.1\EXAMPLES\MONEY\MONEYTEST.CPP
D:\__1__WORK\__4__PROJECTDEVSOURCE\__10__PILOT\__1__CPPUNIT\CPPUNIT-1.12.1\EXAMPLES\MONEY\RELEASE\MONEYTEST.OBJ
D:\__1__WORK\__4__PROJECTDEVSOURCE\__10__PILOT\__1__CPPUNIT\CPPUNIT-1.12.1\EXAMPLES\MONEY\RELEASE\MONEYAPP.OBJ
