^D:\__1__WORK\__4__PROJECTDEVSOURCE\__10__PILOT\__1__CPPUNIT\CPPUNIT-1.12.1\EXAMPLES\MONEY\RELEASE\MONEYAPP.OBJ|D:\__1__WORK\__4__PROJECTDEVSOURCE\__10__PILOT\__1__CPPUNIT\CPPUNIT-1.12.1\EXAMPLES\MONEY\RELEASE\MONEYTEST.OBJ|D:\__1__WORK\__4__PROJECTDEVSOURCE\__10__PILOT\__1__CPPUNIT\CPPUNIT-1.12.1\EXAMPLES\MONEY\RELEASE\STDAFX.OBJ
/ERRORREPORT:PROMPT /OUT:".\Release\money.exe" /INCREMENTAL:NO /NOLOGO /LIBPATH:../../lib odbc32.lib odbccp32.lib cppunit.lib kernel32.lib user32.lib gdi32.lib winspool.lib comdlg32.lib advapi32.lib shell32.lib ole32.lib oleaut32.lib uuid.lib odbc32.lib odbccp32.lib /MANIFEST /ManifestFile:".\Release\money.exe.intermediate.manifest" /MANIFESTUAC:"level='asInvoker' uiAccess='false'" /PDB:"D:\__1__WORK\__4__ProjectDevSource\__10__Pilot\__1__CPPUnit\cppunit-1.12.1\examples\money\Release\money.pdb" /SUBSYSTEM:CONSOLE /TLBID:1 /DYNAMICBASE /NXCOMPAT /IMPLIB:".\Release\money.lib" /MACHINE:X86 .\Release\MoneyApp.obj
.\Release\MoneyTest.obj
.\Release\StdAfx.obj
