^D:\__1__WORK\__4__PROJECTDEVSOURCE\__10__PILOT\__1__CPPUNIT\CPPUNIT-1.12.1\LIB\CPPUNIT_DLL.DLL
copy D:\__1__WORK\__4__ProjectDevSource\__10__Pilot\__1__CPPUnit\cppunit-1.12.1\lib\cppunit_dll.dll .\DebugTest\cppunit_dll.dll
^D:\__1__WORK\__4__PROJECTDEVSOURCE\__10__PILOT\__1__CPPUNIT\CPPUNIT-1.12.1\LIB\CPPUNITD_DLL.DLL
copy D:\__1__WORK\__4__ProjectDevSource\__10__Pilot\__1__CPPUnit\cppunit-1.12.1\lib\cppunitd_dll.dll .\DebugTest\cppunitd_dll.dll
