^D:\__1__WORK\__4__PROJECTDEVSOURCE\__10__PILOT\__1__CPPUNIT\CPPUNIT-1.12.1\SRC\DLLPLUGINTESTER\COMMANDLINEPARSER.CPP
/c /I..\..\include /Zi /nologo /W3 /WX- /Od /Oy- /D WIN32 /D _DEBUG /D _CONSOLE /D CPPUNIT_DLL /D _VC80_UPGRADE=0x0600 /D _MBCS /Gm /EHsc /RTC1 /MDd /GS /Gy- /fp:precise /Zc:wchar_t /Zc:forScope /GR /Fo".\DebugDll\\" /Fd".\DebugDll\vc100.pdb" /Gd /TP /analyze- /errorReport:prompt D:\__1__WORK\__4__PROJECTDEVSOURCE\__10__PILOT\__1__CPPUNIT\CPPUNIT-1.12.1\SRC\DLLPLUGINTESTER\COMMANDLINEPARSER.CPP
^D:\__1__WORK\__4__PROJECTDEVSOURCE\__10__PILOT\__1__CPPUNIT\CPPUNIT-1.12.1\SRC\DLLPLUGINTESTER\DLLPLUGINTESTER.CPP
/c /I..\..\include /Zi /nologo /W3 /WX- /Od /Oy- /D WIN32 /D _DEBUG /D _CONSOLE /D CPPUNIT_DLL /D _VC80_UPGRADE=0x0600 /D _MBCS /Gm /EHsc /RTC1 /MDd /GS /Gy- /fp:precise /Zc:wchar_t /Zc:forScope /GR /Fo".\DebugDll\\" /Fd".\DebugDll\vc100.pdb" /Gd /TP /analyze- /errorReport:prompt D:\__1__WORK\__4__PROJECTDEVSOURCE\__10__PILOT\__1__CPPUNIT\CPPUNIT-1.12.1\SRC\DLLPLUGINTESTER\DLLPLUGINTESTER.CPP
