^D:\__1__WORK\__4__PROJECTDEVSOURCE\__10__PILOT\__1__CPPUNIT\CPPUNIT-1.12.1\SRC\DLLPLUGINTESTER\COMMANDLINEPARSER.CPP|D:\__1__WORK\__4__PROJECTDEVSOURCE\__10__PILOT\__1__CPPUNIT\CPPUNIT-1.12.1\SRC\DLLPLUGINTESTER\DLLPLUGINTESTER.CPP
D:\__1__WORK\__4__PROJECTDEVSOURCE\__10__PILOT\__1__CPPUNIT\CPPUNIT-1.12.1\SRC\DLLPLUGINTESTER\DEBUGDLL\COMMANDLINEPARSER.OBJ
D:\__1__WORK\__4__PROJECTDEVSOURCE\__10__PILOT\__1__CPPUNIT\CPPUNIT-1.12.1\SRC\DLLPLUGINTESTER\DEBUGDLL\DLLPLUGINTESTER.OBJ
^D:\__1__WORK\__4__PROJECTDEVSOURCE\__10__PILOT\__1__CPPUNIT\CPPUNIT-1.12.1\SRC\DLLPLUGINTESTER\COMMANDLINEPARSER.CPP
D:\__1__WORK\__4__PROJECTDEVSOURCE\__10__PILOT\__1__CPPUNIT\CPPUNIT-1.12.1\SRC\DLLPLUGINTESTER\DEBUGDLL\VC100.PDB
^D:\__1__WORK\__4__PROJECTDEVSOURCE\__10__PILOT\__1__CPPUNIT\CPPUNIT-1.12.1\SRC\DLLPLUGINTESTER\DLLPLUGINTESTER.CPP
D:\__1__WORK\__4__PROJECTDEVSOURCE\__10__PILOT\__1__CPPUNIT\CPPUNIT-1.12.1\SRC\DLLPLUGINTESTER\DEBUGDLL\VC100.PDB
