^D:\__1__WORK\__4__PROJECTDEVSOURCE\__10__PILOT\__1__CPPUNIT\CPPUNIT-1.12.1\SRC\DLLPLUGINTESTER\DEBUGDLL\COMMANDLINEPARSER.OBJ|D:\__1__WORK\__4__PROJECTDEVSOURCE\__10__PILOT\__1__CPPUNIT\CPPUNIT-1.12.1\SRC\DLLPLUGINTESTER\DEBUGDLL\DLLPLUGINTESTER.OBJ
D:\__1__WORK\__4__PROJECTDEVSOURCE\__10__PILOT\__1__CPPUNIT\CPPUNIT-1.12.1\SRC\DLLPLUGINTESTER\DEBUGDLL\DLLPLUGINTESTERD_DLL.EXE
D:\__1__WORK\__4__PROJECTDEVSOURCE\__10__PILOT\__1__CPPUNIT\CPPUNIT-1.12.1\SRC\DLLPLUGINTESTER\DEBUGDLL\DLLPLUGINTESTERD_DLL.EXE.INTERMEDIATE.MANIFEST
D:\__1__WORK\__4__PROJECTDEVSOURCE\__10__PILOT\__1__CPPUNIT\CPPUNIT-1.12.1\SRC\DLLPLUGINTESTER\DEBUGDLL\DLLPLUGINTESTERD_DLL.PDB
